<?xml version="1.0" encoding="UTF-8"?>
<svg width="75.59mm" height="69.067mm" version="1.1" viewBox="0 0 75.59 69.067" xmlns="http://www.w3.org/2000/svg" xmlns:cc="http://creativecommons.org/ns#" xmlns:dc="http://purl.org/dc/elements/1.1/" xmlns:rdf="http://www.w3.org/1999/02/22-rdf-syntax-ns#">
 <metadata>
  <rdf:RDF>
   <cc:Work rdf:about="">
    <dc:format>image/svg+xml</dc:format>
    <dc:type rdf:resource="http://purl.org/dc/dcmitype/StillImage"/>
    <dc:title/>
   </cc:Work>
  </rdf:RDF>
 </metadata>
 <g transform="translate(-72.347 -115.36)">
  <g transform="matrix(.35278 0 0 -.35278 59.097 200.14)">
   <g transform="scale(.1)">
    <path d="m1451.5 2403.4c-526.21 0-954.32-428.1-954.32-954.32 0-264.63 105.82-510.67 297.96-692.77l10.453-9.91 10.582 9.777c27.629 25.524 56.641 49.192 86.825 70.993 146.35-129.23 338.36-207.9 548.49-207.9 209.96 0 401.82 78.543 548.12 207.58 30.04-21.718 58.98-45.238 86.53-70.699l10.58-9.769 10.46 9.898c192.57 182.49 298.63 428.53 298.63 692.8 0 526.22-428.11 954.32-954.32 954.32" fill="#fff"/>
    <g fill="#e32124">
     <path d="m1212.9 1892.2c-35.22 0-62.85 24.75-62.85 56.62 0 31.9 27.64 56.88 62.85 56.88s62.81-24.98 62.81-56.87c0-31.88-27.6-56.63-62.81-56.63m0 90.67c-22.38 0-39.99-15.01-39.99-34.05 0-19.03 17.61-33.78 39.99-33.78s39.98 14.75 39.98 33.79c0 19.03-17.6 34.04-39.98 34.04"/>
     <path d="m1437.5 1892.2c-12.62 0-22.83 10.46-22.83 23.32v47.11c0 11.19-9.78 20.24-21.91 20.24-11.89 0-21.65-9.05-21.65-20.24v-70.43c-12.63 0-22.85 10.23-22.85 22.84v47.59c0 11.19-9.75 20.24-21.87 20.24-11.92 0-21.69-9.05-21.69-20.24v-47.37c0-12.6-10.21-23.06-22.83-23.06v70.43c0 23.79 19.98 43.07 44.52 43.07 13.29 0 25.21-5.46 33.29-14.28 8.09 8.82 20 14.28 33.08 14.28 24.74 0 44.74-19.28 44.74-43.07v-70.43"/>
     <path d="m1511.8 1892.5c-5.96 0-11.68 0.47-16.91 1.67-11.9 3.34-18.81 15.69-15.69 27.61 0.46 1.43 0.93 2.84 1.43 4.04l0.21 0.24c6.43-7.15 16.9-10.72 30.96-10.72 20.95 0 37.35 14.75 37.35 33.33 0 19.27-16.4 34.5-37.35 34.5-19.77 0-39.52-10.95-39.52-34.99v-74.01c0-12.36-10.46-22.37-22.85-22.37v96.38c0 33.32 26.2 57.84 62.37 57.84 15.95 0 30.92-5.96 42.33-16.42 11.46-10.71 17.87-25.24 17.87-40.93 0-31.44-26.42-56.17-60.2-56.17"/>
     <path d="m1674.7 2027.4h-48.91v-135.16h-0.95c-12.12 0-21.89 10.44-21.89 22.82v112.34h-48.91c-12.37 0-22.36 10.23-22.36 22.6h165.63c0-12.37-9.99-22.6-22.61-22.6"/>
     <path d="m1870.3 1906.6-12.13 26.08h-81.15l-11.96-26.83c-5.66-10.8-20.73-13.97-32.26-13.97l66.16 145.04c3.74 8.32 10.4 13.08 18.12 13.08 7.7 0 14.55-4.76 18.31-13.08l65.39-143.27c-12.3-1.17-25.7 2.49-30.48 12.95m-50.63 119.84-32.49-71.39h61.26l-32.71 71.64 3.94-0.25"/>
     <path d="m1124.4 2007.4c-12.38 13.07-30.46 21.63-50.46 21.63-35.44 0-64.25-25.68-64.25-57.34 0-31.65 28.81-57.57 64.25-57.57 16.9 0 32.85 6.41 44.98 16.64 8.34 6.91 20.7 6.42 28.81-0.48-6.2-9.5-14.52-17.84-24.75-24.26-14.53-9.29-31.43-14.05-49.04-14.05-47.82 0-86.615 35.7-86.615 79.72 0 44.03 38.795 79.72 86.615 79.72 34.04 0 64.97-18.56 78.78-47.11-8.81-5.72-20.95-5-28.32 3.1"/>
     <path d="m1909.4 1901c-6.63 0-12.01 4.84-12.01 10.78s5.38 10.87 12.01 10.87c6.62 0 12.03-4.93 12.03-10.87s-5.41-10.78-12.03-10.78m0 19.12c-5.27 0-9.5-3.75-9.5-8.34s4.23-8.33 9.5-8.33c5.28 0 9.57 3.74 9.57 8.33s-4.29 8.34-9.57 8.34m4.43-9.35c-0.31-0.2-0.69-0.34-1.1-0.45 0 0 0.73-0.91 3.01-3.63l-0.43-0.36c-0.96-0.78-2.4-0.67-3.21 0.26-2.5 2.99-2.76 3.35-2.76 3.35h-2.88v0.83c0.12 1.07 1.05 2 2.22 2h1.39c1.01 0 1.77 0.18 2.28 0.49 0.43 0.18 0.56 0.5 0.56 0.93 0 0.35 0 1.34-2.84 1.34h-3.92v-7.5c0-1.2-1.03-2.19-2.31-2.19h-0.56v10.43c0.05 1.16 1.02 2.07 2.21 2.14h4.58c5.16 0 5.72-2.95 5.72-4.22 0-1.49-0.76-2.71-1.96-3.42"/>
     <path d="m1704.6 2049.9v-135.57c0-12.15 10.47-22.14 22.84-22.14v135.59c0 12.12-10.48 22.12-22.84 22.12"/>
    </g>
    <path d="m2096.3 788.5c-23.63 21.18-48.25 40.93-73.59 59.512 159.1 151.28 258.58 364.7 258.58 601.04 0 457.56-372.25 829.81-829.8 829.81-457.55 0-829.8-372.25-829.8-829.81 0-236.2 99.367-449.51 258.3-600.77-25.492-18.672-50.25-38.492-73.973-59.761-179.43 175.21-278.06 409.2-278.06 660.53 0 509.24 414.3 923.54 923.54 923.54s923.54-414.3 923.54-923.54c0-250.98-98.86-484.99-278.73-660.55zm-99.09 77.691c-136.52 93.481-294.66 149.92-460.78 164.39v108.36h-30.78v-171.51c0-11.989 4.03-23.801 11.36-33.258l44.22-57.223c-5.78-7.769-9.32-17.277-9.32-27.687 0-25.711 20.92-46.641 46.64-46.641 25.71 0 46.64 20.93 46.64 46.641 0 25.718-20.93 46.636-46.64 46.636-4.09 0-7.98-0.687-11.76-1.687l-45.44 58.789c-3.17 4.102-4.92 9.219-4.92 14.43v32.25c157.19-14.231 307.08-67.321 437.11-154.76-140.15-121.27-322.61-194.89-522.05-194.89-199.6 0-382.2 73.739-522.39 195.18 126.84 85.18 272.89 138.02 426.07 153.64v-31.422c0-5.2-1.75-10.321-4.93-14.442l-45.38-58.707c-3.72 0.957-7.54 1.617-11.55 1.617-25.72 0-46.64-20.918-46.64-46.636 0-25.711 20.92-46.641 46.64-46.641 25.71 0 46.64 20.93 46.64 46.641 0 10.476-3.6 20.058-9.46 27.847l44.1 57.063c7.32 9.469 11.36 21.277 11.36 33.258v171.51h-30.78v-109.09c-161.95-15.98-316.26-72.311-449.62-163.45-155.59 145.89-253.08 353.04-253.08 582.65 0 440.59 358.44 799.02 799.02 799.02s799.02-358.43 799.02-799.02c0-229.72-97.58-436.96-253.3-582.86zm-545.72 1537.2c-526.21 0-954.32-428.1-954.32-954.32 0-264.63 105.82-510.67 297.96-692.77l10.453-9.91 10.582 9.777c27.629 25.524 56.641 49.192 86.825 70.993 146.35-129.23 338.36-207.9 548.49-207.9 209.96 0 401.82 78.543 548.12 207.58 30.04-21.718 58.98-45.238 86.53-70.699l10.58-9.769 10.46 9.898c192.57 182.49 298.63 428.53 298.63 692.8 0 526.22-428.11 954.32-954.32 954.32" fill="#626e79"/>
    <path d="m2434.7 1790.1h-2059.1v-498.9c0-46.13 37.519-83.65 83.64-83.65h2059.1v498.89c0 46.12-37.53 83.66-83.65 83.66" fill="#e32124"/>
    <path d="m1389.1 1604.6-60.74-141.74h121.99zm185.78-282.46h-65.81l-35.94 85.54h-167.55l-36.45-85.54h-63.78l155.91 356.87h57.71l155.91-356.87" fill="#fff"/>
    <path d="m1678.2 1624.8h57.72v-96.68h97.19v-55.68h-97.19v-96.68h-57.72v96.68h-97.19v55.68h97.19v96.68" fill="#fff"/>
    <path d="m1461.2 788.85v350.09h-30.78v-350.09c-18.14-6.403-31.26-23.532-31.26-43.821 0-25.722 20.93-46.652 46.65-46.652s46.64 20.93 46.64 46.652c0 20.289-13.11 37.418-31.25 43.821" fill="#626e79"/>
    <g fill="#e32124">
     <path d="m897.18 613.58c-26.93 18.387-32.66 53.09-14.45 79.746 18.032 26.41 52.399 34.492 80.387 15.383 17.031-11.633 23.27-24.602 26.344-39.102l-18.633-4.879c-2.703 11.911-7.469 21.942-18.031 29.149-17.692 12.082-40.414 6.312-52.856-11.91-12.441-18.219-9.734-41.75 7.957-53.828 11.352-7.762 21.77-8.102 34.739-6.11l3.218-17.679c-16.492-3.461-31.378-2.582-48.675 9.23"/>
     <path d="m1078.2 620.84-56.19 29.148-13.4-25.828 49.8-25.832-8.09-15.609-49.81 25.84-13.832-26.68 56.892-29.508-8.09-15.609-74.352 38.57 51.522 99.316 73.64-38.199-8.09-15.609"/>
     <path d="m1142.7 595.07-26.81 10.032-13.17-35.192 26.96-10.09c13.18-4.929 24.14-1.179 28.18 9.602 4.31 11.527-1.53 20.547-15.16 25.648zm-10.94-96.289-12.08 46.18-23.07 8.629-13.67-36.539-18.42 6.89 39.23 104.83 46.72-17.489c24.11-9.019 34.18-27.301 26.5-47.82-6.5-17.371-20.76-23.981-36.95-22.531l13.45-50.282-21.71 8.133"/>
     <path d="m1226.7 471.9-19.25 4.711 22.24 91.012-34.48 8.418 4.32 17.711 88.22-21.559-4.33-17.711-34.47 8.43-22.25-91.012"/>
     <path d="m1325.4 566.94-17.47-110.53-19.42 3.059 17.47 110.54 19.42-3.071"/>
     <path d="m1433.2 538.82-63.46 4.66-2.24-30.449 56.29-4.14-1.31-17.86-56.29 4.141-3.34-45.453-19.61 1.453 8.2 111.61 83.07-6.101-1.31-17.86"/>
     <path d="m1473 557.79 1.82-111.91-19.67-0.309-1.82 111.9 19.67 0.32"/>
     <path d="m1583.9 547.99-63.02-5.867 2.7-28.973 55.86 5.211 1.64-17.5-55.87-5.211 2.79-29.929 63.82 5.961 1.63-17.508-83.39-7.781-10.39 111.41 82.6 7.699 1.63-17.512"/>
     <path d="m1645.5 559.65-21.54-4.769 16.44-74.289 21.54 4.762c22.94 5.078 34.5 23.847 29.74 45.378-4.76 21.54-23.24 33.989-46.18 28.918zm20.3-91.777-40.74-9.012-24.16 109.26 40.73 9.008c34.34 7.59 63.28-10.719 70.12-41.629 6.83-30.898-11.61-60.031-45.95-67.629"/>
     <path d="m1776.4 536.31c-7.73-2.727-16.41 1.332-19.18 9.171-2.77 7.829 1.43 16.442 9.16 19.18 7.84 2.77 16.52-1.289 19.29-9.129s-1.43-16.441-9.27-19.222"/>
     <path d="m1903.8 549.56c-29.26-14.411-62.29-2.34-76.57 26.632-14.12 28.688-4.27 62.59 26.14 77.571 18.5 9.109 32.86 8.168 47 3.718l-4.91-18.628c-11.7 3.5-22.78 4.277-34.26-1.372-19.21-9.468-25.35-32.101-15.6-51.89 9.74-19.789 31.57-29 50.79-19.539 12.33 6.078 17.75 14.98 22.4 27.258l16.98-5.899c-5.1-16.051-13.18-28.59-31.97-37.851"/>
     <path d="m1986.4 710.8-52.98-34.629 15.91-24.352 46.96 30.692 9.62-14.711-46.96-30.699 16.44-25.153 53.65 35.071 9.62-14.719-70.11-45.821-61.21 93.649 69.44 45.391 9.62-14.719"/>
    </g>
    <path d="m2095.6 801.75c-6.63 0-12.01 4.84-12.01 10.781 0 5.938 5.38 10.867 12.01 10.867 6.62 0 12.03-4.929 12.03-10.867 0-5.941-5.41-10.781-12.03-10.781m0 19.121c-5.27 0-9.5-3.742-9.5-8.34 0-4.59 4.23-8.332 9.5-8.332 5.28 0 9.57 3.742 9.57 8.332 0 4.598-4.29 8.34-9.57 8.34m4.43-9.351c-0.31-0.2-0.69-0.34-1.1-0.45 0 0 0.73-0.922 3.01-3.629l-0.42-0.363c-0.97-0.777-2.41-0.668-3.21 0.262-2.51 2.992-2.77 3.351-2.77 3.351h-2.88v0.829c0.12 1.07 1.05 2 2.22 2h1.39c1.01 0 1.77 0.179 2.28 0.492 0.44 0.179 0.56 0.5 0.56 0.929 0 0.348 0 1.34-2.84 1.34h-3.92v-7.5c0-1.199-1.03-2.191-2.3-2.191h-0.57v10.43c0.05 1.16 1.02 2.07 2.21 2.128h4.58c5.16 0 5.72-2.937 5.72-4.207 0-1.492-0.76-2.711-1.96-3.421" fill="#626e79"/>
   </g>
  </g>
 </g>
</svg>
