<?xml version="1.0" encoding="UTF-8" standalone="no"?>
<svg
   width="330"
   height="330"
   viewBox="0 0 25.443792 25.443792"
   version="1.1"
   id="svg12"
   sodipodi:docname="lpi.svg"
   inkscape:version="1.1 (c4e8f9ed74, 2021-05-24)"
   xmlns:inkscape="http://www.inkscape.org/namespaces/inkscape"
   xmlns:sodipodi="http://sodipodi.sourceforge.net/DTD/sodipodi-0.dtd"
   xmlns="http://www.w3.org/2000/svg"
   xmlns:svg="http://www.w3.org/2000/svg">
  <defs
     id="defs16" />
  <sodipodi:namedview
     id="namedview14"
     pagecolor="#ffffff"
     bordercolor="#666666"
     borderopacity="1.0"
     inkscape:pageshadow="2"
     inkscape:pageopacity="0.0"
     inkscape:pagecheckerboard="0"
     showgrid="false"
     inkscape:zoom="0.98768675"
     inkscape:cx="-74.92254"
     inkscape:cy="205.02452"
     inkscape:window-width="2560"
     inkscape:window-height="1360"
     inkscape:window-x="1920"
     inkscape:window-y="0"
     inkscape:window-maximized="1"
     inkscape:current-layer="svg12" />
  <path
     d="m 12.721896,3.6452336 c 4.999467,0 9.077088,4.0774085 9.077088,9.0768754 0,4.999466 -4.077408,9.076662 -9.077088,9.076662 -4.9992536,0 -9.076662,-4.077409 -9.076662,-9.076662 0,-4.9992539 4.0774084,-9.0768754 9.076662,-9.0768754 z m 0,-2.74807788 c 6.513166,0 11.82474,5.31178688 11.82474,11.82473928 0,6.512954 -5.311574,11.824741 -11.82474,11.824741 -6.5129531,0 -11.82473994,-5.311787 -11.82473994,-11.824741 0,-6.5129524 5.31178684,-11.82473928 11.82473994,-11.82473928 z"
     fill="#9e2d39"
     id="path4"
     style="clip-rule:evenodd;fill-rule:evenodd;stroke-width:0.212897"
     sodipodi:nodetypes="ssssssssss" />
  <path
     d="m 15.629009,6.3858602 c 0.623788,0 1.132187,0.5086115 1.132187,1.1321876 0,0.6235761 -0.508611,1.1321877 -1.132187,1.1321877 -0.623364,0 -1.131763,-0.5088244 -1.131763,-1.1321877 0,-0.6233631 0.508399,-1.1321876 1.131763,-1.1321876 z M 17.763516,19.155225 H 7.5740402 L 10.489243,4.9568938 h 2.709755 L 10.748765,16.89085 h 7.479931 z"
     fill="#9e2d39"
     id="path6"
     style="clip-rule:evenodd;fill-rule:evenodd;stroke-width:0.212897"
     sodipodi:nodetypes="sssssccccccc" />
</svg>
