<?xml version="1.0" encoding="UTF-8" standalone="no"?>
<svg
   id="svg"
   version="1.1"
   width="330"
   height="330"
   viewBox="0 0 330 330"
   sodipodi:docname="sunrise_bath_and_tile.svg"
   inkscape:version="1.1 (c4e8f9ed74, 2021-05-24)"
   xmlns:inkscape="http://www.inkscape.org/namespaces/inkscape"
   xmlns:sodipodi="http://sodipodi.sourceforge.net/DTD/sodipodi-0.dtd"
   xmlns="http://www.w3.org/2000/svg"
   xmlns:svg="http://www.w3.org/2000/svg">
  <defs
     id="defs11" />
  <sodipodi:namedview
     id="namedview9"
     pagecolor="#ffffff"
     bordercolor="#666666"
     borderopacity="1.0"
     inkscape:pageshadow="2"
     inkscape:pageopacity="0.0"
     inkscape:pagecheckerboard="0"
     showgrid="false"
     inkscape:zoom="2.1825"
     inkscape:cx="200.2291"
     inkscape:cy="200"
     inkscape:window-width="2560"
     inkscape:window-height="1360"
     inkscape:window-x="1920"
     inkscape:window-y="0"
     inkscape:window-maximized="1"
     inkscape:current-layer="svgg" />
  <g
     id="svgg"
     transform="scale(0.82359679)">
    <g
       id="g14"
       transform="matrix(0.85350647,0,0,0.85350647,39.86878,32.945953)">
      <path
         id="path0"
         d="m 321.649,15.616 c -5.025,1.129 -5.049,1.244 -5.049,24.584 0,22.965 -0.16,21.91 3.607,23.8 l 1.993,1 h 18.8 18.8 l 1.979,-1 c 3.733,-1.886 3.621,-1.147 3.621,-23.8 0,-24.132 0.03,-24.03 -7.169,-24.443 -5.382,-0.308 -35.322,-0.424 -36.582,-0.141 M 271.2,78.005 c -18.076,0.326 -16.941,-1.392 -16.922,25.595 0.018,27.861 -2.356,25.403 24.522,25.394 28.565,-0.01 26.12,2.479 25.926,-26.394 -0.175,-26.065 1.045,-24.307 -17.126,-24.694 -2.75,-0.058 -10.13,-0.014 -16.4,0.099 m -69,63.037 c -8.698,1.189 -8.702,1.199 -8.899,24.35 -0.171,20.037 -0.113,20.632 2.255,23.125 2.24,2.36 12.485,4.282 16.873,3.166 1.034,-0.263 3.019,-0.352 4.771,-0.213 2.664,0.212 11.297,0.499 17.674,0.589 6.483,0.092 7.978,-3.763 7.699,-19.859 -0.494,-28.597 -0.531,-28.861 -4.268,-30.421 -1.633,-0.682 -31.98,-1.301 -36.105,-0.737 m 121.001,1.798 c -5.299,1.037 -5.401,1.454 -5.401,22.16 0,26.917 -2.418,24.499 24.2,24.2 24.648,-0.277 22.214,2.249 22.165,-23 -0.044,-21.977 -0.103,-22.234 -5.373,-23.364 -2.452,-0.526 -32.902,-0.523 -35.591,0.004 m -120.087,58.772 c -5.397,0.243 -6.315,0.667 -7.825,3.611 l -0.911,1.777 0.111,20 c 0.151,27.206 -2.575,24.4 23.698,24.4 26.672,0 24.09,2.64 24.256,-24.8 0.165,-27.104 1.99,-24.866 -20.443,-25.071 -7.81,-0.071 -16.309,-0.034 -18.886,0.083 m 58.486,61.944 c -7.497,0.877 -7.673,1.495 -7.408,25.98 0.295,27.23 -2.025,24.864 24.375,24.864 28.639,0 25.985,2.428 26.155,-23.932 0.15,-23.454 -0.02,-24.5 -4.278,-26.204 -1.762,-0.705 -33.868,-1.29 -38.844,-0.708 m -124.82,4.135 c -2.795,1.862 -2.854,2.238 -2.794,17.81 0.063,16.384 0.427,22.848 1.367,24.283 1.584,2.418 1.475,2.406 22.047,2.527 21.048,0.125 20.715,0.165 22.386,-2.711 1.15,-1.978 1.498,-36.618 0.397,-39.5 -1.213,-3.178 -0.559,-3.085 -22.603,-3.214 l -19.419,-0.115 -1.381,0.92 M 15.731,326.413 c -5.953,1.195 -5.907,1.011 -6.046,23.889 -0.17,28.06 -2.736,25.395 24.505,25.455 27.404,0.06 25.002,2.481 25.007,-25.202 0.004,-20.294 -0.185,-21.528 -3.591,-23.522 -1.434,-0.84 -36.098,-1.379 -39.875,-0.62 m 64.469,0.262 c -5.66,0.763 -5.9,0.87 -7.296,3.252 l -1.074,1.834 -0.064,17.061 c -0.079,21.397 0.146,23.023 3.573,25.752 l 1.539,1.226 19.061,-0.133 c 27.591,-0.193 24.883,2.446 25.112,-24.467 0.188,-22.106 0.022,-23.152 -3.851,-24.329 -2.116,-0.643 -32.491,-0.804 -37,-0.196 m 251,-0.205 c -1.65,0.148 -4.759,0.371 -6.91,0.495 -7.677,0.442 -8.064,1.297 -8.07,17.835 -0.01,23.678 1.115,29.565 5.866,30.712 1.813,0.438 33.8,0.053 34.559,-0.416 0.22,-0.136 1.15,-0.338 2.067,-0.448 2.543,-0.307 7.506,-3.448 5.448,-3.448 -0.142,0 -0.03,-0.275 0.249,-0.611 0.683,-0.823 1.296,-17.425 1.1,-29.789 -0.237,-14.911 0.478,-14.346 -18.327,-14.496 -7.14,-0.057 -14.332,0.017 -15.982,0.166"
         stroke="none"
         fill="#f5a02f"
         fill-rule="evenodd" />
      <path
         id="path1"
         d="m 322.436,203.224 c -4.772,0.963 -4.838,1.28 -4.827,23.463 0.012,26.46 -2.716,23.79 24.153,23.628 25.518,-0.155 22.838,2.629 22.838,-23.715 0,-21.364 0.023,-21.204 -3.28,-22.845 -1.69,-0.84 -35.091,-1.296 -38.884,-0.531 M 77.042,204.39 c -4.078,1.309 -4.237,2.18 -4.24,23.133 -0.003,26.661 -2.635,24.199 25.669,24.002 24.098,-0.168 21.677,2.193 21.859,-21.325 0.171,-22.037 0.026,-23.123 -3.331,-25.042 -1.391,-0.794 -37.701,-1.492 -39.957,-0.768 m 121.967,123.263 c -4.433,1.038 -4.61,1.934 -4.607,23.424 0.004,26.11 -2.397,23.826 24.855,23.642 24.577,-0.165 22.092,2.347 22.277,-22.519 0.168,-22.659 0.01,-23.477 -4.734,-24.567 -2.264,-0.52 -35.56,-0.502 -37.791,0.02"
         stroke="none"
         fill="#c1202f"
         fill-rule="evenodd" />
      <path
         id="path3"
         d="m 321,9.8 c -0.22,0.075 -1.237,0.25 -2.259,0.387 -2.64,0.355 -5.164,2.161 -6.574,4.706 L 311,17 v 23 23 l 1.065,2.272 c 2.747,5.859 5.074,6.186 39.135,5.5 14.955,-0.302 16.459,-0.789 18.873,-6.125 L 371,62.6 V 40.4 18.2 l -1.276,-2.694 c -1.464,-3.09 -3.581,-4.752 -6.983,-5.481 C 360.946,9.64 322.079,9.431 321,9.8 m 37.231,5.957 c 7.199,0.413 7.169,0.311 7.169,24.443 0,22.653 0.112,21.914 -3.621,23.8 L 359.8,65 H 341 322.2 l -1.993,-1 C 316.44,62.11 316.6,63.165 316.6,40.2 c 0,-27.48 -2.315,-24.968 22.8,-24.735 9.02,0.084 17.494,0.216 18.831,0.292 M 267,72.357 c -13.029,0.308 -14.68,0.907 -17.073,6.196 L 249,80.6 v 23.6 23.6 l 0.896,1.677 c 2.531,4.734 3.591,4.922 28.122,4.979 27.276,0.065 29.296,-0.335 31.592,-6.258 0.592,-1.527 0.881,-42.392 0.327,-46.198 -0.709,-4.865 -3.105,-7.81 -7.312,-8.988 -2.48,-0.694 -20.177,-1.02 -35.625,-0.655 m 29.051,5.796 c 8.456,0.345 8.514,0.508 8.675,24.447 0.194,28.873 2.639,26.384 -25.926,26.394 -26.878,0.009 -24.504,2.467 -24.522,-25.394 -0.015,-22.121 0.122,-22.954 4.089,-24.743 2.008,-0.906 23.066,-1.299 37.684,-0.704 m -99.376,56.285 c -2.776,0.405 -6.023,2.079 -7.282,3.752 -2.36,3.136 -2.378,3.321 -2.51,26.464 -0.134,23.422 -0.071,24.216 2.311,28.935 1.437,2.846 1.501,4.306 0.393,8.97 -0.774,3.261 -0.807,4.477 -0.7,25.732 L 189,250.6 l 0.911,1.705 c 2.555,4.783 3.796,5.005 28.271,5.055 25.176,0.05 27.679,-0.511 29.366,-6.588 1.024,-3.69 0.431,-46.479 -0.685,-49.372 -1.312,-3.402 -1.229,-5.385 0.384,-9.2 l 1.353,-3.2 0.119,-22.734 c 0.144,-27.657 0.022,-28.336 -5.519,-30.8 -2.872,-1.277 -39.317,-2.082 -46.525,-1.028 m 123.117,1.147 c -4.33,0.658 -7.193,3.199 -8.254,7.322 -1.084,4.216 -0.75,41.874 0.421,47.493 l 0.959,4.6 -1.096,3 c -2.305,6.309 -2.269,5.814 -2.141,29.975 l 0.119,22.283 1.209,2.371 c 1.287,2.525 3.627,4.476 6.52,5.439 4.424,1.472 45.647,0.777 48.782,-0.823 5.703,-2.909 5.889,-3.885 5.889,-30.845 v -22.2 l -1.537,-4.4 c -1.682,-4.819 -1.708,-5.433 -0.458,-11 0.784,-3.494 0.932,-42.113 0.174,-45.495 -0.779,-3.474 -2.832,-5.939 -5.98,-7.18 -1.947,-0.767 -40.076,-1.229 -44.607,-0.54 m -81.043,4.398 c 4.992,1.44 5.027,1.608 5.169,24.566 0.186,30.04 2.403,27.657 -25.718,27.638 -28.759,-0.02 -26.395,2.36 -26.398,-26.587 -0.003,-28.669 -2.275,-26.466 26.998,-26.185 10.259,0.099 19.205,0.353 19.949,0.568 m 120.043,2.853 c 5.27,1.13 5.329,1.387 5.373,23.364 0.049,25.249 2.483,22.723 -22.165,23 -26.618,0.299 -24.2,2.717 -24.2,-24.2 0,-20.706 0.102,-21.123 5.401,-22.16 2.689,-0.527 33.139,-0.53 35.591,-0.004 M 75.76,196.049 c -6.389,0.78 -9.351,4.019 -10.068,11.008 -0.625,6.091 0.073,43.687 0.85,45.765 2.519,6.747 6.211,7.396 39.258,6.9 16.787,-0.252 18.593,-0.786 21.052,-6.225 L 127.8,251.4 v -23 c 0,-26.33 0.074,-25.68 -3.35,-29.217 -3.02,-3.12 -3.026,-3.121 -26.451,-3.262 -11.11,-0.066 -21.117,-0.009 -22.239,0.128 m 287.44,2.584 c 5.355,2.479 5.4,2.716 5.4,28.367 0,30.605 2.538,28.013 -27.4,27.975 -23.636,-0.031 -24.309,-0.146 -26.8,-4.59 l -1,-1.785 -0.129,-20.6 c -0.203,-32.45 -2.187,-30.375 28.929,-30.267 18.539,0.065 19.262,0.096 21,0.9 m -243.338,2.056 c 4.529,2.421 4.634,3.043 4.567,26.911 -0.087,31.047 2.406,28.505 -27.912,28.466 C 66.407,256.027 68.8,258.468 68.8,227.8 c 0,-30.762 -2.549,-28.223 28.2,-28.091 21.056,0.09 21.211,0.097 22.862,0.98 M 237.6,202.09 c 5.049,1.556 4.985,1.23 4.843,24.51 -0.166,27.44 2.416,24.8 -24.256,24.8 -26.273,0 -23.547,2.806 -23.698,-24.4 l -0.111,-20 0.911,-1.777 c 1.51,-2.944 2.428,-3.368 7.825,-3.611 7.726,-0.349 32.936,0 34.486,0.478 m 20.641,55.983 c -9.022,1.198 -9.535,2.855 -9.458,30.563 0.095,34.036 -2.242,31.816 33.017,31.368 15.641,-0.199 21.147,-0.395 22.2,-0.79 2.966,-1.112 4.686,-2.987 5.679,-6.191 0.221,-0.715 0.363,-10.604 0.341,-23.823 -0.056,-33.928 2.388,-31.285 -29.02,-31.379 -11.22,-0.034 -21.462,0.079 -22.759,0.252 M 135.4,259.85 c -7.834,1.977 -7.878,2.143 -7.919,29.792 l -0.031,21.843 1.106,2.261 c 2.818,5.759 4.587,6.052 33.644,5.568 L 181,319 l 1.862,-1.094 c 4.074,-2.395 4.413,-4.86 4.256,-30.906 L 187,267.4 l -1.131,-2.303 c -1.187,-2.418 -2.73,-3.847 -5.069,-4.693 -1.407,-0.509 -43.54,-1.023 -45.4,-0.554 m 165.044,4.414 c 4.258,1.704 4.428,2.75 4.278,26.204 -0.17,26.36 2.484,23.932 -26.155,23.932 -26.4,0 -24.08,2.366 -24.375,-24.864 -0.265,-24.485 -0.089,-25.103 7.408,-25.98 4.976,-0.582 37.082,0.003 38.844,0.708 m -122.18,3.427 c 2.525,1.382 2.589,1.962 2.455,22.317 -0.134,20.412 -0.095,20.145 -3.133,21.703 -2.098,1.076 -38.272,0.879 -40.282,-0.219 -2.947,-1.61 -3.233,-3.853 -3.318,-25.991 -0.06,-15.572 -10e-4,-15.948 2.794,-17.81 l 1.381,-0.92 19.419,0.115 c 17.516,0.103 19.544,0.182 20.684,0.805 m 17.897,51.929 c -9.444,1.233 -9.868,2.704 -9.685,33.58 l 0.124,21 0.948,2.097 c 2.811,6.219 3.217,6.303 30.452,6.303 h 22.6 l 2,-0.921 c 6.299,-2.902 6.523,-3.979 6.655,-31.879 0.154,-32.494 2.162,-30.594 -32.255,-30.532 -10.12,0.019 -19.497,0.177 -20.839,0.352 M 73.6,319.986 c -2.235,0.485 -3.249,1.007 -5.77,2.969 -2.874,2.237 -3.126,2.249 -6.084,0.296 C 57.594,320.509 58.548,320.6 34,320.6 H 11.8 l -2.094,0.947 c -5.924,2.678 -5.914,2.629 -5.869,29.653 0.044,26.626 -0.032,26.263 6.127,29.151 L 12.2,381.4 H 34 c 24.092,0 23.588,0.041 27.313,-2.206 3.292,-1.985 4.017,-1.986 6.672,-0.005 4.205,3.137 2.998,3.011 28.815,3.011 27.249,0 26.6,0.134 29.523,-6.102 l 1.077,-2.298 0.113,-22.353 c 0.14,-27.67 0.01,-28.308 -6.244,-30.669 -2.382,-0.899 -43.992,-1.591 -47.669,-0.792 m 245.764,0.028 c -4.925,0.511 -8.074,3.101 -8.961,7.369 -0.299,1.444 -0.403,9.29 -0.322,24.471 0.171,32.132 -1.393,30.198 24.719,30.569 39.483,0.559 37.197,2.516 37.19,-31.823 -0.005,-25.406 -0.265,-26.73 -5.813,-29.6 l -2.32,-1.2 -21.029,-0.019 c -11.565,-0.011 -22.124,0.094 -23.464,0.233 m -78.764,3.707 c 5.206,2.347 5.215,2.399 5.122,27.1 -0.117,30.915 2.555,28.179 -27.522,28.179 -30.903,0 -28.31,2.698 -28.12,-29.262 l 0.12,-20.338 0.948,-1.926 c 1.099,-2.231 3.104,-3.729 5.686,-4.248 3.703,-0.745 41.976,-0.312 43.766,0.495 m -121.249,2.243 c 3.269,2.032 3.249,1.882 3.249,24.636 0,29.21 2.617,26.594 -26.615,26.598 C 72.951,377.2 73.547,377.293 71.6,373.4 l -1,-2 v -20.6 -20.6 l 1,-1.8 c 0.702,-1.264 1.536,-2.071 2.8,-2.711 l 1.8,-0.911 20.8,0.111 20.8,0.111 1.551,0.964 m 241.841,-0.728 c 5.537,1.187 5.599,1.462 5.714,25.564 0.135,28.448 1.683,26.455 -20.706,26.649 -33.734,0.291 -31.2,2.406 -31.2,-26.049 0,-23.58 0.242,-24.78 5.265,-26.111 2.167,-0.574 38.279,-0.621 40.927,-0.053 m -305.586,1.797 c 3.406,1.994 3.595,3.228 3.591,23.522 -0.005,27.683 2.397,25.262 -25.007,25.202 -27.241,-0.06 -24.675,2.605 -24.505,-25.455 0.139,-22.878 0.093,-22.694 6.046,-23.889 3.777,-0.759 38.441,-0.22 39.875,0.62"
         stroke="none"
         fill="#f2c49c"
         fill-rule="evenodd" />
      <path
         id="path4"
         d="m 198.531,139.592 c -6.621,1.411 -6.731,1.836 -6.729,26.008 0.002,23.34 0.228,24.47 5.203,26.001 1.876,0.577 36.205,1.098 35.661,0.541 -0.184,-0.188 -3.064,-0.363 -6.4,-0.388 -3.336,-0.025 -7.416,-0.153 -9.066,-0.284 -1.752,-0.139 -3.737,-0.05 -4.771,0.213 -4.388,1.116 -14.633,-0.806 -16.873,-3.166 -2.368,-2.493 -2.426,-3.088 -2.255,-23.125 C 193.526,138.975 191.392,141 219,141 h 17.6 l 1.973,1 c 3.147,1.596 3.242,1.954 3.663,13.874 0.935,26.495 0.584,30.944 -2.697,34.225 -2.089,2.089 -2.098,2.145 -0.22,1.361 4.503,-1.882 4.745,-3.297 4.599,-26.911 -0.142,-22.958 -0.177,-23.126 -5.169,-24.566 -1.75,-0.505 -38.028,-0.857 -40.218,-0.391 m 122.806,58.414 c -7.861,1.605 -8.235,2.998 -8.066,29.994 l 0.129,20.6 1,1.785 c 2.491,4.444 3.164,4.559 26.8,4.59 29.938,0.038 27.4,2.63 27.4,-27.975 0,-31.586 2.182,-29.167 -26.4,-29.267 -10.56,-0.036 -19.948,0.086 -20.863,0.273 M 74.2,200.192 c -5.14,1.845 -5.4,3.173 -5.4,27.608 0,30.668 -2.393,28.227 27.717,28.266 30.318,0.039 27.825,2.581 27.912,-28.466 0.085,-30.343 2.623,-27.762 -27.429,-27.891 -17.583,-0.075 -21.473,0.007 -22.8,0.483 m 287.12,3.563 c 3.303,1.641 3.28,1.481 3.28,22.845 0,26.344 2.68,23.56 -22.838,23.715 -26.869,0.162 -24.141,2.832 -24.153,-23.628 -0.011,-22.183 0.055,-22.5 4.827,-23.463 3.793,-0.765 37.194,-0.309 38.884,0.531 m -244.321,1.403 c 3.357,1.919 3.502,3.005 3.331,25.042 -0.182,23.518 2.239,21.157 -21.859,21.325 -28.304,0.197 -25.672,2.659 -25.669,-24.002 0.003,-20.953 0.162,-21.824 4.24,-23.133 2.256,-0.724 38.566,-0.026 39.957,0.768 m 79.835,118.068 c -2.582,0.519 -4.587,2.017 -5.686,4.248 l -0.948,1.926 -0.12,20.338 c -0.19,31.96 -2.783,29.262 28.12,29.262 30.077,0 27.405,2.736 27.522,-28.179 0.115,-30.32 2.556,-27.791 -26.922,-27.886 -11.11,-0.035 -20.995,0.095 -21.966,0.291 M 74.4,325.689 c -1.264,0.64 -2.098,1.447 -2.8,2.711 l -1,1.8 v 20.6 20.6 l 1,2 c 1.947,3.893 1.351,3.8 24.385,3.798 29.232,-0.004 26.615,2.612 26.615,-26.598 0,-22.754 0.02,-22.604 -3.249,-24.636 L 117.8,325 97,324.889 l -20.8,-0.111 -1.8,0.911 m 245.865,-0.4 C 315.242,326.62 315,327.82 315,351.4 c 0,28.455 -2.534,26.34 31.2,26.049 22.389,-0.194 20.841,1.799 20.706,-26.649 -0.115,-24.102 -0.177,-24.377 -5.714,-25.564 -2.648,-0.568 -38.76,-0.521 -40.927,0.053 M 117.2,326.871 c 3.873,1.177 4.039,2.223 3.851,24.329 -0.229,26.913 2.479,24.274 -25.112,24.467 l -19.061,0.133 -1.539,-1.226 c -3.427,-2.729 -3.652,-4.355 -3.573,-25.752 l 0.064,-17.061 1.074,-1.834 c 1.396,-2.382 1.636,-2.489 7.296,-3.252 4.509,-0.608 34.884,-0.447 37,0.196 m 244.695,0.375 c 3.158,1.529 3.44,2.585 3.614,13.554 0.196,12.364 -0.417,28.966 -1.1,29.789 -0.279,0.336 -0.391,0.611 -0.249,0.611 2.058,0 -2.905,3.141 -5.448,3.448 -0.917,0.11 -1.847,0.312 -2.067,0.448 -0.759,0.469 -32.746,0.854 -34.559,0.416 -4.751,-1.147 -5.876,-7.034 -5.866,-30.712 0.006,-16.538 0.393,-17.393 8.07,-17.835 2.151,-0.124 5.26,-0.347 6.91,-0.495 7.37,-0.663 28.845,-0.12 30.695,0.776 M 236.8,327.633 c 4.744,1.09 4.902,1.908 4.734,24.567 -0.185,24.866 2.3,22.354 -22.277,22.519 -27.252,0.184 -24.851,2.468 -24.855,-23.642 -0.003,-21.49 0.174,-22.386 4.607,-23.424 2.231,-0.522 35.527,-0.54 37.791,-0.02"
         stroke="none"
         fill="#d27084"
         fill-rule="evenodd" />
    </g>
  </g>
</svg>
